…
    ## # A tibble: 2 x 2
    ##   lost.me.time     n
    ## * <chr>        <int>
    ## 1 No             310
    ## 2 Yes            291

``` r
# Q. How would you attempt to make up for the private time you would lose as a result of changing from commuting alone to carpooling or telecommuting?
commute %>% 
  filter(lost.me.time == "Yes") %>%
  transmute(response = make.up.me.time) %>% 
  distinct()
```

    ## # A tibble: 290 x 1
    ##    response                                                                     
    ##    <chr>                                                                        
    ##  1 i would go take a drive alone to recharge                                    
    ##  2 finding another way to have alone time each day                              
    ##  3 I would need to find additional alone time.                                  
    ##  4 I would probably stay late or reduce time spent onmy leisure activities      
    ##  5 REarrange my schedule a little bit to fit in other activities                
    ##  6 I would use it to get chores done.                                           
    ##  7 I would try to stay up longer at night                                       
    ##  8 try and take some time for myself and maybe just go on a drive once or twice…
    ##  9 I would use my breaks at work to focus more on personal time.                
    ## 10 do something productive                                                      
    ## # … with 280 more rows
…
